<?xml version="1.0" encoding="UTF-8"?>
<svg viewBox="0 0 231 417" version="1.1" xmlns="http://www.w3.org/2000/svg" xmlns:xlink="http://www.w3.org/1999/xlink">
    <defs>
        <path d="M146.825648,1.50799276 L36.9119762,31.0717549 C24.6028518,34.3825717 15.729825,45.1102151 14.7864757,57.8218689 L1.05182496,242.896617 C0.931942087,244.512041 0.943094418,246.134522 1.08517257,247.748146 L13.5271075,389.054908 C14.9803307,405.559597 29.5380945,417.76122 46.042783,416.307997 C46.7826062,416.242856 47.5197554,416.150265 48.2527067,416.030415 L200.163721,391.190372 C214.428187,388.857889 225.001497,376.685653 225.315428,362.235154 L231.983194,55.3119396 C232.231984,43.8598856 225.937713,33.2656988 215.761046,28.0076697 L169.107419,3.90291047 C162.23867,0.354000207 154.291688,-0.50016741 146.825648,1.50799276 Z" id="path-1"></path>
    </defs>
    <g id="Новая-эстетика" stroke="none" stroke-width="1" fill="none" fill-rule="evenodd">
        <g id="Подборки" transform="translate(-349.000000, -910.000000)">
            <g id="quote/big" transform="translate(348.000000, 910.000000)">
                <mask id="mask-2" fill="white">
                    <use xlink:href="#path-1"></use>
                </mask>
                <use id="Path-3-Copy" fill="#B6BF7E" transform="translate(116.484369, 208.447533) scale(-1, 1) translate(-116.484369, -208.447533) " xlink:href="#path-1"></use>
            </g>
        </g>
    </g>
</svg>