{
  "id": "5",
  "name": "Доставка по Московской области с пробной корзиной",
  "price": 80,
  "deliveryFree": 700,
  "inMKAD": 0,
  "MkadDistance": 4,
  "data": [
    {
      "source": "Московская обл, г Красногорск, Ильинское шоссе, д 12, кв 104",
      "result": "Московская обл, г Красногорск, ш Ильинское, д 12, кв 104",
      "postal_code": "143405",
      "country": "Россия",
      "region_fias_id": "29251dcf-00a1-4e34-98d4-5c47484a36d4",
      "region_kladr_id": "5000000000000",
      "region_with_type": "Московская обл",
      "region_type": "обл",
      "region_type_full": "область",
      "region": "Московская",
      "area_fias_id": null,
      "area_kladr_id": null,
      "area_with_type": null,
      "area_type": null,
      "area_type_full": null,
      "area": null,
      "city_fias_id": "63fcf18a-365e-451f-baee-8d09ac50b773",
      "city_kladr_id": "5000004900000",
      "city_with_type": "г Красногорск",
      "city_type": "г",
      "city_type_full": "город",
      "city": "Красногорск",
      "city_area": null,
      "city_district_fias_id": null,
      "city_district_kladr_id": null,
      "city_district_with_type": null,
      "city_district_type": null,
      "city_district_type_full": null,
      "city_district": null,
      "settlement_fias_id": null,
      "settlement_kladr_id": null,
      "settlement_with_type": null,
      "settlement_type": null,
      "settlement_type_full": null,
      "settlement": null,
      "street_fias_id": "28fb115e-14ab-4d98-a645-4aed46f215ef",
      "street_kladr_id": "50000049000004100",
      "street_with_type": "ш Ильинское",
      "street_type": "ш",
      "street_type_full": "шоссе",
      "street": "Ильинское",
      "house_fias_id": "69d5fd4c-5719-4a35-90d1-6add7dee6b2e",
      "house_kladr_id": "5000004900000410005",
      "house_type": "д",
      "house_type_full": "дом",
      "house": "12",
      "block_type": null,
      "block_type_full": null,
      "block": null,
      "flat_type": "кв",
      "flat_type_full": "квартира",
      "flat": "104",
      "flat_area": "63.5",
      "square_meter_price": null,
      "flat_price": null,
      "postal_box": null,
      "fias_id": "69d5fd4c-5719-4a35-90d1-6add7dee6b2e",
      "fias_code": "50000049000000000410005",
      "fias_level": "8",
      "fias_actuality_state": "0",
      "kladr_id": "5000004900000410005",
      "capital_marker": "1",
      "okato": "46439000000",
      "oktmo": "46744000001",
      "tax_office": "5024",
      "tax_office_legal": "5024",
      "timezone": "UTC+3",
      "geo_lat": "55.8049767",
      "geo_lon": "37.3248143",
      "beltway_hit": "OUT_MKAD",
      "beltway_distance": "4",
      "qc_geo": 0,
      "qc_complete": 0,
      "qc_house": 2,
      "qc": 0,
      "unparsed_parts": null,
      "metro": [
        {
          "distance": 4.3,
          "line": "Арбатско-Покровская",
          "name": "Мякинино"
        },
        {
          "distance": 4.9,
          "line": "Арбатско-Покровская",
          "name": "Строгино"
        },
        {
          "distance": 4.9,
          "line": "Арбатско-Покровская",
          "name": "Волоколамская"
        }
      ]
    }
  ]
}